[
  {
    "name": "Benedict Cumberbatch",
    "age": "28",
    "phone": {
      "cell": "+1 (123) 456-7890",
      "home": "+1 (123) 456-7890",
      "work": "+1 (123) 456-7890",
      "other": "+1 (123) 456-7890"
    },
    "email": {
      "home": "home@example.com"
    },
    "address": {
      "home": "123 Somehwere Street Somewhere, State 12345",
      "other": "123 Somehwere Street Somewhere, State 12345"
    }
  },
  {
    "name": "Buttercup Cumbersnatch",
    "age": "28",
    "phone": {
      "cell": "+1 (123) 456-7890",
      "home": "+1 (123) 456-7890",
      "work": "+1 (123) 456-7890"
    },
    "email": {
      "home": "home@example.com",
      "work": "work@example.com"
    },
    "address": {
      "work": "123 Somehwere Street Somewhere, State 12345",
      "other": "123 Somehwere Street Somewhere, State 12345"
    }
  },
  {
    "name": "Bodysnatch Cummerbund",
    "age": "28",
    "phone": {
      "cell": "+1 (123) 456-7890",
      "home": "+1 (123) 456-7890"
    },
    "email": {
      "home": "home@example.com",
      "other": "other@example.com"
    },
    "address": {
      "home": "123 Somehwere Street Somewhere, State 12345",
      "work": "123 Somehwere Street Somewhere, State 12345",
      "other": "123 Somehwere Street Somewhere, State 12345"
    }
  },
  {
    "name": "Bandicoop Clipisnap",
    "age": "28",
    "phone": {
      "cell": "+1 (123) 456-7890"
    },
    "email": {
      "other": "other@example.com"
    },
    "address": {
      "home": "123 Somehwere Street Somewhere, State 12345",
      "work": "123 Somehwere Street Somewhere, State 12345",
      "other": "123 Somehwere Street Somewhere, State 12345"
    }
  },
  {
    "name": "Britishguy Sillyname",
    "age": "28",
    "phone": {
      "cell": "+1 (123) 456-7890",
      "home": "+1 (123) 456-7890",
      "work": "+1 (123) 456-7890",
      "other": "+1 (123) 456-7890"
    },
    "email": {
      "home": "home@example.com",
      "work": "work@example.com",
      "other": "other@example.com"
    },
    "address": {
      "home": "123 Somehwere Street Somewhere, State 12345"
    }
  },
  {
    "name": "Beaniebag Cabbagepatch",
    "age": "28",
    "phone": {
      "cell": "+1 (123) 456-7890",
      "home": "+1 (123) 456-7890",
      "other": "+1 (123) 456-7890"
    },
    "email": {
      "home": "home@example.com",
      "work": "work@example.com",
      "other": "other@example.com"
    },
    "address": {
      "home": "123 Somehwere Street Somewhere, State 12345",
      "other": "123 Somehwere Street Somewhere, State 12345"
    }
  },
  {
    "name": "Benadryl Cucumberpatch",
    "age": "28",
    "phone": {
      "work": "+1 (123) 456-7890",
      "other": "+1 (123) 456-7890"
    },
    "email": {
      "work": "work@example.com",
      "other": "other@example.com"
    },
    "address": {
      "work": "123 Somehwere Street Somewhere, State 12345",
      "other": "123 Somehwere Street Somewhere, State 12345"
    }
  },
  {
    "name": "Beetlebord Crumpetpatch",
    "age": "28",
    "phone": {
      "cell": "+1 (123) 456-7890",
      "home": "+1 (123) 456-7890",
      "other": "+1 (123) 456-7890"
    },
    "email": {
      "work": "work@example.com"
    },
    "address": {
      "home": "123 Somehwere Street Somewhere, State 12345",
      "other": "123 Somehwere Street Somewhere, State 12345"
    }
  },
  {
    "name": "Buffalo Custardbath",
    "age": "28",
    "phone": {
      "cell": "+1 (123) 456-7890",
      "work": "+1 (123) 456-7890"
    },
    "email": {
      "home": "home@example.com",
      "work": "work@example.com",
      "other": "other@example.com"
    },
    "address": {
      "home": "123 Somehwere Street Somewhere, State 12345"
    }
  },
  {
    "name": "Bumblesnuff Crimpysnitch",
    "age": "28",
    "phone": {
      "cell": "+1 (123) 456-7890",
      "home": "+1 (123) 456-7890",
      "work": "+1 (123) 456-7890",
      "other": "+1 (123) 456-7890"
    },
    "email": {
      "home": "home@example.com",
      "work": "work@example.com",
      "other": "other@example.com"
    },
    "address": {
      "other": "123 Somehwere Street Somewhere, State 12345"
    }
  },
  {
    "name": "Benedettini Cabinetry",
    "age": "28",
    "phone": {
      "cell": "+1 (123) 456-7890",
      "home": "+1 (123) 456-7890",
      "work": "+1 (123) 456-7890",
      "other": "+1 (123) 456-7890"
    },
    "email": {
      "work": "work@example.com",
      "other": "other@example.com"
    },
    "address": {
      "home": "123 Somehwere Street Somewhere, State 12345",
      "other": "123 Somehwere Street Somewhere, State 12345"
    }
  },
  {
    "name": "Cadbury Pringlepatch",
    "age": "28",
    "phone": {
      "cell": "+1 (123) 456-7890"
    },
    "email": {
      "home": "home@example.com"
    },
    "address": {
      "home": "123 Somehwere Street Somewhere, State 12345",
      "other": "123 Somehwere Street Somewhere, State 12345"
    }
  },
  {
    "name": "Bumblegoof Claritin",
    "age": "28",
    "phone": {
      "cell": "+1 (123) 456-7890"
    },
    "email": {
      "home": "home@example.com",
      "other": "other@example.com"
    },
    "address": {
      "home": "123 Somehwere Street Somewhere, State 12345",
      "work": "123 Somehwere Street Somewhere, State 12345"
    }
  },
  {
    "name": "Fiddlestick Cottonswab",
    "age": "28",
    "phone": {
      "cell": "+1 (123) 456-7890"
    },
    "email": {
      "home": "home@example.com",
      "work": "work@example.com",
      "other": "other@example.com"
    },
    "address": {
      "other": "123 Somehwere Street Somewhere, State 12345"
    }
  },
  {
    "name": "Blueberry Pumpkinpatch",
    "age": "28",
    "phone": {
      "cell": "+1 (123) 456-7890",
      "home": "+1 (123) 456-7890",
      "work": "+1 (123) 456-7890",
      "other": "+1 (123) 456-7890"
    },
    "email": {
      "home": "home@example.com"
    },
    "address": {
      "work": "123 Somehwere Street Somewhere, State 12345"
    }
  }
]